{
    "pagination": {
        "last_visible_page": 2,
        "has_next_page": true,
        "current_page": 1,
        "items": {
            "count": 2,
            "total": 3,
            "per_page": 2
        }
    },
    "data": [
        {
            "mal_id": 41025,
            "url": "https://myanimelist.net/anime/41025/Fumetsu_no_Anata_e",
            "images": {
                "jpg": {
                    "image_url": "https://cdn.myanimelist.net/images/anime/1880/118484.jpg",
                    "small_image_url": "https://cdn.myanimelist.net/images/anime/1880/118484t.jpg",
                    "large_image_url": "https://cdn.myanimelist.net/images/anime/1880/118484l.jpg"
                },
                "webp": {
                    "image_url": "https://cdn.myanimelist.net/images/anime/1880/118484.webp",
                    "small_image_url": "https://cdn.myanimelist.net/images/anime/1880/118484t.webp",
                    "large_image_url": "https://cdn.myanimelist.net/images/anime/1880/118484l.webp"
                }
            },
            "trailer": {
                "youtube_id": "YOn779f6lwI",
                "url": "https://www.youtube.com/watch?v=YOn779f6lwI",
                "embed_url": "https://www.youtube.com/embed/YOn779f6lwI?enablejsapi=1&wmode=opaque&autoplay=1",
                "images": {
                    "image_url": "https://img.youtube.com/vi/YOn779f6lwI/default.jpg",
                    "small_image_url": "https://img.youtube.com/vi/YOn779f6lwI/sddefault.jpg",
                    "medium_image_url": "https://img.youtube.com/vi/YOn779f6lwI/mqdefault.jpg",
                    "large_image_url": "https://img.youtube.com/vi/YOn779f6lwI/hqdefault.jpg",
                    "maximum_image_url": "https://img.youtube.com/vi/YOn779f6lwI/maxresdefault.jpg"
                }
            },
            "approved": true,
            "titles": [
                {
                    "type": "Default",
                    "title": "Fumetsu no Anata e"
                },
                {
                    "type": "Synonym",
                    "title": "To You"
                },
                {
                    "type": "Synonym",
                    "title": "the Immortal"
                },
                {
                    "type": "Japanese",
                    "title": "不滅のあなたへ"
                },
                {
                    "type": "English",
                    "title": "To Your Eternity"
                },
                {
                    "type": "German",
                    "title": "To Your Eternity"
                },
                {
                    "type": "Spanish",
                    "title": "To Your Eternity"
                },
                {
                    "type": "French",
                    "title": "To Your Eternity"
                }
            ],
            "title": "Fumetsu no Anata e",
            "title_english": "To Your Eternity",
            "title_japanese": "不滅のあなたへ",
            "title_synonyms": [
                "To You",
                "the Immortal"
            ],
            "type": "TV",
            "source": "Manga",
            "episodes": 20,
            "status": "Finished Airing",
            "airing": false,
            "aired": {
                "from": "2021-04-12T00:00:00+00:00",
                "to": "2021-08-30T00:00:00+00:00",
                "prop": {
                    "from": {
                        "day": 12,
                        "month": 4,
                        "year": 2021
                    },
                    "to": {
                        "day": 30,
                        "month": 8,
                        "year": 2021
                    }
                },
                "string": "Apr 12, 2021 to Aug 30, 2021"
            },
            "duration": "25 min per ep",
            "rating": "R - 17+ (violence & profanity)",
            "score": 8.38,
            "scored_by": 300035,
            "rank": 180,
            "popularity": 228,
            "members": 730183,
            "favorites": 12542,
            "synopsis": "An Orb, known only as It, is cast to Earth to be observed from afar. Capable of changing forms from beings whose reflections It captures, It first becomes a rock and then, due to the rising temperature, moss. It does not move until one snowy day, a wolf at death's door barely crosses by. When It takes the animal's form, It attains awareness of its consciousness and starts to wander with an unclear destination in mind. Soon, It comes across the wolf's master—a young boy waiting for his tribe to return from a paradise abundant with fish and fruit in the south. Although the boy is lonely, he still hopes those whom he holds dear in his memories have not forgotten him and that he will reunite with them one day. The boy wants to explore new surroundings and decides to abandon his home with It to find the paradise using the traces his tribe left behind. However, with a heavily injured body and no sight of his elder comrades, what will become of the boy? Fumetsu no Anata e illustrates the story of an immortal being experiencing humanity, meeting all types of people in many places throughout time. [Written by MAL Rewrite]",
            "background": null,
            "season": "spring",
            "year": 2021,
            "broadcast": {
                "day": "Mondays",
                "time": "22:50",
                "timezone": "Asia/Tokyo",
                "string": "Mondays at 22:50 (JST)"
            },
            "producers": [
                {
                    "mal_id": 111,
                    "type": "anime",
                    "name": "NHK",
                    "url": "https://myanimelist.net/anime/producer/111/NHK"
                },
                {
                    "mal_id": 159,
                    "type": "anime",
                    "name": "Kodansha",
                    "url": "https://myanimelist.net/anime/producer/159/Kodansha"
                },
                {
                    "mal_id": 1797,
                    "type": "anime",
                    "name": "NHK Enterprises",
                    "url": "https://myanimelist.net/anime/producer/1797/NHK_Enterprises"
                }
            ],
            "licensors": [],
            "studios": [
                {
                    "mal_id": 112,
                    "type": "anime",
                    "name": "Brain's Base",
                    "url": "https://myanimelist.net/anime/producer/112/Brains_Base"
                }
            ],
            "genres": [
                {
                    "mal_id": 2,
                    "type": "anime",
                    "name": "Adventure",
                    "url": "https://myanimelist.net/anime/genre/2/Adventure"
                },
                {
                    "mal_id": 8,
                    "type": "anime",
                    "name": "Drama",
                    "url": "https://myanimelist.net/anime/genre/8/Drama"
                },
                {
                    "mal_id": 37,
                    "type": "anime",
                    "name": "Supernatural",
                    "url": "https://myanimelist.net/anime/genre/37/Supernatural"
                }
            ],
            "explicit_genres": [],
            "themes": [],
            "demographics": [
                {
                    "mal_id": 27,
                    "type": "anime",
                    "name": "Shounen",
                    "url": "https://myanimelist.net/anime/genre/27/Shounen"
                }
            ]
        },
        {
            "mal_id": 49287,
            "url": "https://myanimelist.net/anime/49287/Fumetsu_no_Anata_e__Fushi_no_Tabiji",
            "images": {
                "jpg": {
                    "image_url": "https://cdn.myanimelist.net/images/anime/1130/116106.jpg",
                    "small_image_url": "https://cdn.myanimelist.net/images/anime/1130/116106t.jpg",
                    "large_image_url": "https://cdn.myanimelist.net/images/anime/1130/116106l.jpg"
                },
                "webp": {
                    "image_url": "https://cdn.myanimelist.net/images/anime/1130/116106.webp",
                    "small_image_url": "https://cdn.myanimelist.net/images/anime/1130/116106t.webp",
                    "large_image_url": "https://cdn.myanimelist.net/images/anime/1130/116106l.webp"
                }
            },
            "trailer": {
                "youtube_id": null,
                "url": null,
                "embed_url": null,
                "images": {
                    "image_url": null,
                    "small_image_url": null,
                    "medium_image_url": null,
                    "large_image_url": null,
                    "maximum_image_url": null
                }
            },
            "approved": true,
            "titles": [
                {
                    "type": "Default",
                    "title": "Fumetsu no Anata e: Fushi no Tabiji"
                },
                {
                    "type": "Synonym",
                    "title": "Fumetsu no Anata e Recap"
                },
                {
                    "type": "Synonym",
                    "title": "To You"
                },
                {
                    "type": "Synonym",
                    "title": "the Immortal Recap"
                },
                {
                    "type": "Synonym",
                    "title": "To Your Eternity Recap"
                },
                {
                    "type": "Japanese",
                    "title": "不滅のあなたへ 特別総集編「フシの旅路」"
                }
            ],
            "title": "Fumetsu no Anata e: Fushi no Tabiji",
            "title_english": null,
            "title_japanese": "不滅のあなたへ 特別総集編「フシの旅路」",
            "title_synonyms": [
                "Fumetsu no Anata e Recap",
                "To You",
                "the Immortal Recap",
                "To Your Eternity Recap"
            ],
            "type": "Special",
            "source": "Manga",
            "episodes": 1,
            "status": "Finished Airing",
            "airing": false,
            "aired": {
                "from": "2021-07-05T00:00:00+00:00",
                "to": null,
                "prop": {
                    "from": {
                        "day": 5,
                        "month": 7,
                        "year": 2021
                    },
                    "to": {
                        "day": null,
                        "month": null,
                        "year": null
                    }
                },
                "string": "Jul 5, 2021"
            },
            "duration": "25 min",
            "rating": "R - 17+ (violence & profanity)",
            "score": 6.7,
            "scored_by": 2935,
            "rank": 5351,
            "popularity": 4907,
            "members": 14939,
            "favorites": 101,
            "synopsis": "Recap of episodes 1 to 12 of Fumetsu no Anata e.",
            "background": null,
            "season": null,
            "year": null,
            "broadcast": {
                "day": null,
                "time": null,
                "timezone": null,
                "string": null
            },
            "producers": [
                {
                    "mal_id": 111,
                    "type": "anime",
                    "name": "NHK",
                    "url": "https://myanimelist.net/anime/producer/111/NHK"
                },
                {
                    "mal_id": 1797,
                    "type": "anime",
                    "name": "NHK Enterprises",
                    "url": "https://myanimelist.net/anime/producer/1797/NHK_Enterprises"
                }
            ],
            "licensors": [],
            "studios": [
                {
                    "mal_id": 112,
                    "type": "anime",
                    "name": "Brain's Base",
                    "url": "https://myanimelist.net/anime/producer/112/Brains_Base"
                }
            ],
            "genres": [
                {
                    "mal_id": 2,
                    "type": "anime",
                    "name": "Adventure",
                    "url": "https://myanimelist.net/anime/genre/2/Adventure"
                },
                {
                    "mal_id": 8,
                    "type": "anime",
                    "name": "Drama",
                    "url": "https://myanimelist.net/anime/genre/8/Drama"
                },
                {
                    "mal_id": 37,
                    "type": "anime",
                    "name": "Supernatural",
                    "url": "https://myanimelist.net/anime/genre/37/Supernatural"
                }
            ],
            "explicit_genres": [],
            "themes": [],
            "demographics": [
                {
                    "mal_id": 27,
                    "type": "anime",
                    "name": "Shounen",
                    "url": "https://myanimelist.net/anime/genre/27/Shounen"
                }
            ]
        }
    ]
}
